[gd_scene load_steps=4 format=3 uid="uid://dalgvy83pavv5"]

[ext_resource type="Script" path="res://scripts/entity.gd" id="1_n12qo"]
[ext_resource type="Texture2D" uid="uid://cbbjiodo8ray8" path="res://icon.svg" id="2_80mkk"]

[sub_resource type="CircleShape2D" id="CircleShape2D_clsmo"]
radius = 50.0

[node name="Entity" type="CharacterBody2D"]
script = ExtResource("1_n12qo")

[node name="Sprite2D" type="Sprite2D" parent="."]
texture = ExtResource("2_80mkk")

[node name="CollisionShape2D" type="CollisionShape2D" parent="."]
shape = SubResource("CircleShape2D_clsmo")
